[
    {
        "default": 0.9211313318191315,
        "shift": 0.9211313318191315,
        "name": "abs_eta_uncalib",
        "scale": 0.6350577138432961
    },
    {
        "default": 157230.6464850473,
        "shift": 157230.6464850473,
        "name": "pt_uncalib",
        "scale": 285085.4496728392
    },
    {
        "default": 2269.0558978894096,
        "shift": 2269.0559015838307,
        "name": "JetFitter_mass",
        "scale": 1630.4961299203596
    },
    {
        "default": null,
        "shift": 0.0,
        "name": "JetFitter_isDefaults",
        "scale": 1.0
    },
    {
        "default": 0,
        "shift": 0.30695943657515257,
        "name": "JetFitter_energyFraction",
        "scale": 0.34132360397395617
    },
    {
        "default": 0,
        "shift": 9.927639906535086,
        "name": "JetFitter_significance3d",
        "scale": 15.878380065141918
    },
    {
        "default": -1,
        "shift": 0.1478022289451124,
        "name": "JetFitter_nVTX",
        "scale": 0.9790117797477788
    },
    {
        "default": -1,
        "shift": 0.08059054764789374,
        "name": "JetFitter_nSingleTracks",
        "scale": 1.0283950945320024
    },
    {
        "default": -1,
        "shift": 0.9748614879944454,
        "name": "JetFitter_nTracksAtVtx",
        "scale": 2.0306048260883522
    },
    {
        "default": -1,
        "shift": 2.005060470586568,
        "name": "JetFitter_N2Tpair",
        "scale": 4.8293375814161
    },
    {
        "default": 0.050793906369801564,
        "shift": 0.05079390581148308,
        "name": "JetFitter_deltaR",
        "scale": 0.05240885064352749
    },
    {
        "default": -1,
        "shift": 0.9778912167092948,
        "name": "SV1_NGTinSvx",
        "scale": 2.7463129253345295
    },
    {
        "default": 2029.9485422603038,
        "shift": 2029.9485080945094,
        "name": "SV1_masssvx",
        "scale": 777.3041654074709
    },
    {
        "default": null,
        "shift": 0.0,
        "name": "SV1_isDefaults",
        "scale": 1.0
    },
    {
        "default": -1,
        "shift": 1.2248361000309378,
        "name": "SV1_N2Tpair",
        "scale": 4.21994099032549
    },
    {
        "default": 0,
        "shift": 0.21583087537764328,
        "name": "SV1_efracsvx",
        "scale": 0.31551517258727374
    },
    {
        "default": 0.05881439668486187,
        "shift": 0.05881439578950352,
        "name": "SV1_deltaR",
        "scale": 0.1065806684074125
    },
    {
        "default": 14.37440507038225,
        "shift": 14.374404970719706,
        "name": "SV1_Lxy",
        "scale": 14.24951833505878
    },
    {
        "default": 23.960591762868088,
        "shift": 23.960592072583573,
        "name": "SV1_L3d",
        "scale": 26.71346771873323
    },
    {
        "default": 29.973579855769174,
        "shift": 29.973579581481683,
        "name": "SV1_significance3d",
        "scale": 25.582115299634307
    },
    {
        "default": 0.5166939510321513,
        "shift": 0.5166939510191438,
        "name": "IP2D_bu",
        "scale": 4.833074071636206
    },
    {
        "default": null,
        "shift": 0.0,
        "name": "IP2D_isDefaults",
        "scale": 1.0
    },
    {
        "default": -0.7797387040014687,
        "shift": -0.7797387042583849,
        "name": "IP2D_bc",
        "scale": 2.233460739095743
    },
    {
        "default": 1.2854340693982247,
        "shift": 1.2854340702330178,
        "name": "IP2D_cu",
        "scale": 2.733339555661136
    },
    {
        "default": 0.7621388428781525,
        "shift": 0.7621388428821109,
        "name": "IP3D_bu",
        "scale": 5.424395489585273
    },
    {
        "default": null,
        "shift": 0.0,
        "name": "IP3D_isDefaults",
        "scale": 1.0
    },
    {
        "default": -0.7726670790537864,
        "shift": -0.7726670788115819,
        "name": "IP3D_bc",
        "scale": 2.6144940979293017
    },
    {
        "default": 1.5297226713908072,
        "shift": 1.5297226715801646,
        "name": "IP3D_cu",
        "scale": 3.0435189680549932
    },
    {
        "default": 0,
        "shift": 1.2437861483271104,
        "name": "secondaryVtx_nTrks",
        "scale": 1.2944391100540455
    },
    {
        "default": null,
        "shift": 0.0,
        "name": "secondaryVtx_isDefaults",
        "scale": 1.0
    },
    {
        "default": 706.3742843292663,
        "shift": 706.3742783289291,
        "name": "secondaryVtx_m",
        "scale": 604.7734189470856
    },
    {
        "default": 83819.90007184341,
        "shift": 83819.89948641395,
        "name": "secondaryVtx_E",
        "scale": 532440.8482513105
    },
    {
        "default": 0,
        "shift": 0.15795494724822745,
        "name": "secondaryVtx_EFrac",
        "scale": 0.21571472424292512
    },
    {
        "default": 25.261238314296442,
        "shift": 25.261238236869804,
        "name": "secondaryVtx_L3d",
        "scale": 37.991122473000274
    },
    {
        "default": 14.622521971488656,
        "shift": 14.622522108551129,
        "name": "secondaryVtx_Lxy",
        "scale": 19.698522404258885
    },
    {
        "default": 4.474291163496248,
        "shift": 4.47429122120991,
        "name": "secondaryVtx_max_trk_flightDirRelEta",
        "scale": 1.0399729881371254
    },
    {
        "default": 3.906750028796735,
        "shift": 3.9067500055004065,
        "name": "secondaryVtx_min_trk_flightDirRelEta",
        "scale": 0.962897925421946
    },
    {
        "default": 4.18873311581126,
        "shift": 4.188733110466794,
        "name": "secondaryVtx_avg_trk_flightDirRelEta",
        "scale": 0.9567353377127752
    },
    {
        "default": 5.2614594454164685,
        "shift": 5.2614594454164685,
        "name": "max_trk_flightDirRelEta",
        "scale": 1.2290747102487916
    },
    {
        "default": 2.2827330096505807,
        "shift": 2.2827330096505807,
        "name": "min_trk_flightDirRelEta",
        "scale": 0.5597239416884431
    },
    {
        "default": 3.4000223198644077,
        "shift": 3.4000223198644077,
        "name": "avg_trk_flightDirRelEta",
        "scale": 0.8093014531682665
    },
    {
        "default": 0.2930071354200557,
        "shift": 0.2930071354199627,
        "name": "rnnip_pb",
        "scale": 0.3270012958558374
    },
    {
        "default": 0.17798438867151717,
        "shift": 0.17798438866510113,
        "name": "rnnip_pc",
        "scale": 0.10954738885312498
    },
    {
        "default": 0.5059695487364059,
        "shift": 0.5059695486578497,
        "name": "rnnip_pu",
        "scale": 0.33278345044198276
    },
    {
        "default": 0.023038927172508748,
        "shift": 0.023038927173454436,
        "name": "rnnip_ptau",
        "scale": 0.08134188819003793
    },
    {
        "default": null,
        "shift": 0.0,
        "name": "rnnip_isDefaults",
        "scale": 1.0
    },
    {
        "default": 0.06353308467425506,
        "shift": 0.06353308287282466,
        "name": "SMT_dR",
        "scale": 0.022946807506310448
    },
    {
        "default": -0.019345910354837157,
        "shift": -0.019345911107559132,
        "name": "SMT_mu_d0",
        "scale": 0.4025885055383203
    },
    {
        "default": 23.561387759545994,
        "shift": 23.56138798252309,
        "name": "SMT_qOverPratio",
        "scale": 631.4576234411614
    },
    {
        "default": 11738.282900922688,
        "shift": 11738.283163935597,
        "name": "SMT_pTrel",
        "scale": 9207.910840825336
    },
    {
        "default": 0.3535072284383943,
        "shift": 0.3535072217427499,
        "name": "SMT_scatneighsignif",
        "scale": 14.260070838025628
    },
    {
        "default": 0.7398095203181173,
        "shift": 0.7398095140291139,
        "name": "SMT_mombalsignif",
        "scale": 0.5792492817090501
    },
    {
        "default": null,
        "shift": 0.0,
        "name": "SMT_isDefaults",
        "scale": 1.0
    },
    {
        "default": 0.36393620900752965,
        "shift": 0.36393620900752965,
        "name": "iprnn_pb",
        "scale": 0.3477426222382644
    },
    {
        "default": 0.18068759949381755,
        "shift": 0.18068759949381755,
        "name": "iprnn_pc",
        "scale": 0.13956844859568648
    },
    {
        "default": 0.4553761914677717,
        "shift": 0.4553761914677717,
        "name": "iprnn_pu",
        "scale": 0.35661971775927304
    },
    {
        "default": 42987.723372926455,
        "shift": 42987.72273674004,
        "name": "softMuon_pt",
        "scale": 174075.4560050463
    },
    {
        "default": 0.055759542872281076,
        "shift": 0.05575954182309247,
        "name": "softMuon_dR",
        "scale": 0.018761025031891608
    },
    {
        "default": 0.0002887784387910805,
        "shift": 0.000288778449042968,
        "name": "softMuon_eta",
        "scale": 0.33039297212881397
    },
    {
        "default": 0.03976256635747028,
        "shift": 0.039762567574748345,
        "name": "softMuon_phi",
        "scale": 0.6049009469341664
    },
    {
        "default": 7.222694857620976,
        "shift": 7.222694871991645,
        "name": "softMuon_qOverPratio",
        "scale": 389.4047536765712
    },
    {
        "default": 0.7583182429589038,
        "shift": 0.7583182451355329,
        "name": "softMuon_momentumBalanceSignificance",
        "scale": 0.5478123483073897
    },
    {
        "default": 0.35154896378984,
        "shift": 0.35154896907673966,
        "name": "softMuon_scatteringNeighbourSignificance",
        "scale": 14.25100959059025
    },
    {
        "default": 10564.610263131643,
        "shift": 10564.610341630812,
        "name": "softMuon_pTrel",
        "scale": 7573.5421560073855
    },
    {
        "default": 0.2303214296910918,
        "shift": 0.23032143628604668,
        "name": "softMuon_ip3dD0",
        "scale": 0.3081629786202479
    },
    {
        "default": 0.8187132088936216,
        "shift": 0.8187131904987045,
        "name": "softMuon_ip3dZ0",
        "scale": 3.514823234345554
    },
    {
        "default": 7.978321225564484,
        "shift": 7.97832109230002,
        "name": "softMuon_ip3dD0Significance",
        "scale": 7.406525843835112
    },
    {
        "default": 7.384617635529719,
        "shift": 7.384617786393712,
        "name": "softMuon_ip3dZ0Significance",
        "scale": 34.46275677614809
    },
    {
        "default": 0.023230467330493644,
        "shift": 0.0232304670297171,
        "name": "softMuon_ip3dD0Uncertainty",
        "scale": 0.006415961847787103
    },
    {
        "default": 0.03655518948976232,
        "shift": 0.036555189622531944,
        "name": "softMuon_ip3dZ0Uncertainty",
        "scale": 3.525494658826564
    },
    {
        "default": null,
        "shift": 0.0,
        "name": "softMuon_isDefaults",
        "scale": 1.0
    },
    {
        "default": 0.6614502957820115,
        "shift": 0.6614502700887718,
        "name": "smt_b",
        "scale": 0.07251106981563801
    },
    {
        "default": 0.12024165294162575,
        "shift": 0.12024164984114337,
        "name": "smt_c",
        "scale": 0.019760493966576115
    },
    {
        "default": 0.17214523187424144,
        "shift": 0.17214523248142938,
        "name": "smt_u",
        "scale": 0.07963965891358864
    },
    {
        "default": 38.94752672132119,
        "shift": 38.94752672132119,
        "name": "averageInteractionsPerCrossing",
        "scale": 13.518091570276422
    },
    {
        "default": 38.94752672132119,
        "shift": 38.94752672132119,
        "name": "actualInteractionsPerCrossing",
        "scale": 13.518091570276422
    },
    {
        "default": 3.0,
        "shift": 3.0,
        "name": "HadronConeExclTruthLabelID",
        "scale": 2.160246899469287
    }
]