[
    {
        "default": 0.9183380819801333,
        "name": "abs_eta_uncalib",
        "shift": 0.9183380819801333,
        "scale": 0.633061796244641
    },
    {
        "default": 600350.6885092795,
        "name": "pt_uncalib",
        "shift": 600350.6885092795,
        "scale": 1030847.2646772079
    },
    {
        "default": 2630.0349597483832,
        "name": "JetFitter_mass",
        "shift": 2630.0349430964043,
        "scale": 1981.552603097582
    },
    {
        "default": null,
        "name": "JetFitter_isDefaults",
        "shift": 0.0,
        "scale": 1.0
    },
    {
        "default": 0,
        "name": "JetFitter_energyFraction",
        "shift": 0.3040443587577672,
        "scale": 0.33874460068312406
    },
    {
        "default": 0,
        "name": "JetFitter_significance3d",
        "shift": 10.156823962049616,
        "scale": 16.27136073661267
    },
    {
        "default": -1,
        "name": "JetFitter_nVTX",
        "shift": 0.1729355273962381,
        "scale": 0.9950550789855486
    },
    {
        "default": -1,
        "name": "JetFitter_nSingleTracks",
        "shift": 0.18894284512738205,
        "scale": 1.1962267729071863
    },
    {
        "default": -1,
        "name": "JetFitter_nTracksAtVtx",
        "shift": 1.0187069802240245,
        "scale": 2.071744209437254
    },
    {
        "default": -1,
        "name": "JetFitter_N2Tpair",
        "shift": 2.8476756144805697,
        "scale": 7.315952472050459
    },
    {
        "default": 0.058923534668899935,
        "name": "JetFitter_deltaR",
        "shift": 0.05892353480174856,
        "scale": 0.05100003722193411
    },
    {
        "default": -1,
        "name": "SV1_NGTinSvx",
        "shift": 0.7772211950351106,
        "scale": 2.5885566366891104
    },
    {
        "default": 2008.1800928510916,
        "name": "SV1_masssvx",
        "shift": 2008.1800678682137,
        "scale": 753.5339692758699
    },
    {
        "default": null,
        "name": "SV1_isDefaults",
        "shift": 0.0,
        "scale": 1.0
    },
    {
        "default": -1,
        "name": "SV1_N2Tpair",
        "shift": 0.977697268320242,
        "scale": 3.9085242716850463
    },
    {
        "default": 0,
        "name": "SV1_efracsvx",
        "shift": 0.19806761919378638,
        "scale": 0.30816698311707047
    },
    {
        "default": 0.062189536187028646,
        "name": "SV1_deltaR",
        "shift": 0.06218953736454342,
        "scale": 0.10138999500529089
    },
    {
        "default": 14.729660985301129,
        "name": "SV1_Lxy",
        "shift": 14.729660986930602,
        "scale": 13.891589897223572
    },
    {
        "default": 24.581539033144857,
        "name": "SV1_L3d",
        "shift": 24.58153911031947,
        "scale": 25.997552642357885
    },
    {
        "default": 29.778522240015267,
        "name": "SV1_significance3d",
        "shift": 29.778522400507473,
        "scale": 23.67507623416155
    },
    {
        "default": 0.10340348093799837,
        "name": "IP2D_bu",
        "shift": 0.10340348091048944,
        "scale": 5.120905020064353
    },
    {
        "default": null,
        "name": "IP2D_isDefaults",
        "shift": 0.0,
        "scale": 1.0
    },
    {
        "default": -1.1311382343141279,
        "name": "IP2D_bc",
        "shift": -1.13113823380974,
        "scale": 2.6701095089507025
    },
    {
        "default": 1.2268643383561737,
        "name": "IP2D_cu",
        "shift": 1.2268643383475295,
        "scale": 2.750793589652434
    },
    {
        "default": 0.29132585089888724,
        "name": "IP3D_bu",
        "shift": 0.2913258507955156,
        "scale": 5.759075423899231
    },
    {
        "default": null,
        "name": "IP3D_isDefaults",
        "shift": 0.0,
        "scale": 1.0
    },
    {
        "default": -1.182941268472359,
        "name": "IP3D_bc",
        "shift": -1.1829412690162981,
        "scale": 3.126454151392697
    },
    {
        "default": 1.471728284055298,
        "name": "IP3D_cu",
        "shift": 1.471728284579576,
        "scale": 3.071389882845485
    },
    {
        "default": 0,
        "name": "secondaryVtx_nTrks",
        "shift": 1.226102157648105,
        "scale": 1.2713816532642521
    },
    {
        "default": null,
        "name": "secondaryVtx_isDefaults",
        "shift": 0.0,
        "scale": 1.0
    },
    {
        "default": 692.0346009405441,
        "name": "secondaryVtx_m",
        "shift": 692.034603035385,
        "scale": 750.5439078738556
    },
    {
        "default": 163380.4661462923,
        "name": "secondaryVtx_E",
        "shift": 163380.4670564054,
        "scale": 8401124.2250186
    },
    {
        "default": 0,
        "name": "secondaryVtx_EFrac",
        "shift": 0.15184832035457435,
        "scale": 0.21474139436866876
    },
    {
        "default": 22.673917429196425,
        "name": "secondaryVtx_L3d",
        "shift": 22.673917548457457,
        "scale": 36.61628155564388
    },
    {
        "default": 12.884678148873165,
        "name": "secondaryVtx_Lxy",
        "shift": 12.884678057323733,
        "scale": 18.604891967939604
    },
    {
        "default": 4.317873159476473,
        "name": "secondaryVtx_max_trk_flightDirRelEta",
        "shift": 4.317873104116284,
        "scale": 1.0403937758561281
    },
    {
        "default": 3.7883816244983928,
        "name": "secondaryVtx_min_trk_flightDirRelEta",
        "shift": 3.7883816077341055,
        "scale": 0.9359217464138858
    },
    {
        "default": 4.05103595125869,
        "name": "secondaryVtx_avg_trk_flightDirRelEta",
        "shift": 4.051035926714962,
        "scale": 0.9444349591645906
    },
    {
        "default": 5.19180984400281,
        "name": "max_trk_flightDirRelEta",
        "shift": 5.191809843987881,
        "scale": 1.2237376250107095
    },
    {
        "default": 2.3382259523937696,
        "name": "min_trk_flightDirRelEta",
        "shift": 2.3382259523850473,
        "scale": 0.52403011260946
    },
    {
        "default": 3.372673810969076,
        "name": "avg_trk_flightDirRelEta",
        "shift": 3.3726738109642738,
        "scale": 0.7051357219034424
    },
    {
        "default": 0.3059238202809772,
        "name": "rnnip_pb",
        "shift": 0.3059238202780092,
        "scale": 0.31186856254396367
    },
    {
        "default": 0.17322881398237439,
        "name": "rnnip_pc",
        "shift": 0.17322881398725598,
        "scale": 0.08921259672367535
    },
    {
        "default": 0.5019698154094241,
        "name": "rnnip_pu",
        "shift": 0.5019698154049711,
        "scale": 0.30087841920166314
    },
    {
        "default": 0.018877550325330537,
        "name": "rnnip_ptau",
        "shift": 0.018877550327877624,
        "scale": 0.07155711958674156
    },
    {
        "default": null,
        "name": "rnnip_isDefaults",
        "shift": 0.0,
        "scale": 1.0
    },
    {
        "default": 0.08865176119952524,
        "name": "SMT_dR",
        "shift": 0.08865176137887937,
        "scale": 0.0321510078503812
    },
    {
        "default": -0.022909322237584847,
        "name": "SMT_mu_d0",
        "shift": -0.02290932267185174,
        "scale": 0.47848262491007837
    },
    {
        "default": 20.947423387478175,
        "name": "SMT_qOverPratio",
        "shift": 20.94742384825282,
        "scale": 728.8667660625163
    },
    {
        "default": 109306.15182371934,
        "name": "SMT_pTrel",
        "shift": 109306.14897366868,
        "scale": 70183.09682869511
    },
    {
        "default": 0.503255771379813,
        "name": "SMT_scatneighsignif",
        "shift": 0.5032557824323051,
        "scale": 1.4790260003521911
    },
    {
        "default": 0.8610394488971963,
        "name": "SMT_mombalsignif",
        "shift": 0.8610394579940068,
        "scale": 0.6820826950452094
    },
    {
        "default": null,
        "name": "SMT_isDefaults",
        "shift": 0.0,
        "scale": 1.0
    },
    {
        "default": 0.38790424248951094,
        "name": "iprnn_pb",
        "shift": 0.38790424248951094,
        "scale": 0.34542336938371254
    },
    {
        "default": 0.16493686697406892,
        "name": "iprnn_pc",
        "shift": 0.16493686697406892,
        "scale": 0.11944732303403499
    },
    {
        "default": 0.4471588605294248,
        "name": "iprnn_pu",
        "shift": 0.4471588605294248,
        "scale": 0.34306116532788133
    },
    {
        "default": 41492.680965741114,
        "name": "softMuon_pt",
        "shift": 41492.67986199931,
        "scale": 223498.3529864651
    },
    {
        "default": 0.08235089389815746,
        "name": "softMuon_dR",
        "shift": 0.0823508946844569,
        "scale": 0.02847409309325239
    },
    {
        "default": -0.001977203941651222,
        "name": "softMuon_eta",
        "shift": -0.001977203887989244,
        "scale": 0.3390360061618506
    },
    {
        "default": 0.05073371377670487,
        "name": "softMuon_phi",
        "shift": 0.05073371508841323,
        "scale": 0.6665811769948322
    },
    {
        "default": 8.783159296275901,
        "name": "softMuon_qOverPratio",
        "shift": 8.783159261482254,
        "scale": 463.8204308943374
    },
    {
        "default": 0.9085150811497767,
        "name": "softMuon_momentumBalanceSignificance",
        "shift": 0.9085150937229595,
        "scale": 0.6499561405080936
    },
    {
        "default": 0.5230358167091469,
        "name": "softMuon_scatteringNeighbourSignificance",
        "shift": 0.5230358232627478,
        "scale": 1.3707321319992407
    },
    {
        "default": 106713.14306098492,
        "name": "softMuon_pTrel",
        "shift": 106713.14095754887,
        "scale": 64474.04253800514
    },
    {
        "default": 0.2290212069270284,
        "name": "softMuon_ip3dD0",
        "shift": 0.22902120655669506,
        "scale": 0.37239930971345625
    },
    {
        "default": 0.9287215102219202,
        "name": "softMuon_ip3dZ0",
        "shift": 0.9287214906209924,
        "scale": 4.221983329575794
    },
    {
        "default": 7.093623600048536,
        "name": "softMuon_ip3dD0Significance",
        "shift": 7.093623632951231,
        "scale": 8.777789223211167
    },
    {
        "default": 7.9926054960314366,
        "name": "softMuon_ip3dZ0Significance",
        "shift": 7.992605660228528,
        "scale": 40.35452057265261
    },
    {
        "default": 0.024058816831068138,
        "name": "softMuon_ip3dD0Uncertainty",
        "shift": 0.024058816937644084,
        "scale": 0.0073197452252536585
    },
    {
        "default": 0.026111123370537,
        "name": "softMuon_ip3dZ0Uncertainty",
        "shift": 0.026111123986083194,
        "scale": 4.235893979029608
    },
    {
        "default": null,
        "name": "softMuon_isDefaults",
        "shift": 0.0,
        "scale": 1.0
    },
    {
        "default": 0.8216059986994345,
        "name": "smt_b",
        "shift": 0.8216059828949304,
        "scale": 0.0741749867104154
    },
    {
        "default": 0.13820095147986203,
        "name": "smt_c",
        "shift": 0.13820095331297882,
        "scale": 0.023045809034757378
    },
    {
        "default": 0.13775356490785007,
        "name": "smt_u",
        "shift": 0.13775356165359745,
        "scale": 0.05948393988266137
    },
    {
        "default": 38.92052907246895,
        "name": "averageInteractionsPerCrossing",
        "shift": 38.92052907246895,
        "scale": 13.498866961775754
    },
    {
        "default": 38.92052907246895,
        "name": "actualInteractionsPerCrossing",
        "shift": 38.92052907246895,
        "scale": 13.498866961775754
    }
]