{
  "model_name": "DL1r-VR_track_jets-3M-3TeV_pT-ext_Zprime",
  "scale_dict": "params_MC16D-2019-VRjets-ext-Zprime.json",
  "train_file": "DL1r_Training-VRjets_extended-Zprime_MC16D_2019-3M_preprocessed.h5",
  "validation_file": "MC16d_hybrid_odd_100_VRtrackJets-no-pTcuts-file_0.h5",
  "add_validation_file": "MC16d_hybrid_odd_0_ext-Zprime_VRtrackJets-no-pTcuts-stats-file_0.h5",
  "variable_config": "configs/DL1r_Variables.json",
  "NN_structure":  {
    "lr": 0.01,
    "batch_size": 300,
    "activations": ["relu", "relu", "relu", "relu", "relu", "relu", "relu", "relu"],
    "units": [72, 57, 60, 48, 36, 24, 12, 6],
    "dropout_rate": [0.1, 0.1, 0.1, 0.1, 0.1, 0.1, 0.1, 0.1]
    }
}
